Curso pre-congreso Inmunoinformática
…
## [1] 522   7

dim(sigCD3CD28)

## [1] 1433    7

dim(sig1)

## [1] 1955    7

## Mostrar las primeras 100 filas de sigCD3CD28

head(sigCD3CD28, n=100)

## # A tibble: 100 × 7
##    gene        baseMean log2FoldChange lfcSE  stat       pvalue        padj
##    <chr>          <dbl>          <dbl> <dbl> <dbl>        <dbl>       <dbl>
##  1 XLOC_000986     8.09          -1.55 0.535 -2.83 0.00469      0.0212     
##  2 XLOC_000988     5.97          -1.93 0.553 -3.33 0.000882     0.00504    
##  3 XLOC_002947     5.39          -1.57 0.552 -2.73 0.00637      0.0274     
##  4 XLOC_003913    34.7           -2.37 0.423 -5.49 0.0000000408 0.000000613
##  5 XLOC_003921     7.41          -2.39 0.553 -4.33 0.0000151    0.000137   
##  6 XLOC_004229    13.9           -1.36 0.495 -2.71 0.00664      0.0283     
##  7 XLOC_006357     3.72          -1.40 0.545 -2.64 0.00826      0.0342     
##  8 XLOC_006358    25.0           -1.68 0.423 -3.92 0.0000884    0.000666   
##  9 XLOC_006572     4.82          -1.69 0.550 -3.01 0.00262      0.0128     
## 10 XLOC_007590    48.5           -1.58 0.414 -3.79 0.000148     0.00106    
## # ℹ 90 more rows
…
